%YAML 1.1
%TAG !u! tag:unity3d.com,2011:
--- !u!1 &8389817490833005129
GameObject:
  m_ObjectHideFlags: 0
  m_CorrespondingSourceObject: {fileID: 0}
  m_PrefabInstance: {fileID: 0}
  m_PrefabAsset: {fileID: 0}
  serializedVersion: 6
  m_Component:
  - component: {fileID: 8389817490833005131}
  - component: {fileID: 8389817490833005128}
  - component: {fileID: 8389817490833005130}
  m_Layer: 0
  m_Name: GameEnding
  m_TagString: Untagged
  m_Icon: {fileID: 0}
  m_NavMeshLayer: 0
  m_StaticEditorFlags: 0
  m_IsActive: 1
--- !u!4 &8389817490833005131
Transform:
  m_ObjectHideFlags: 0
  m_CorrespondingSourceObject: {fileID: 0}
  m_PrefabInstance: {fileID: 0}
  m_PrefabAsset: {fileID: 0}
  m_GameObject: {fileID: 8389817490833005129}
  m_LocalRotation: {x: 0, y: 0, z: 0, w: 1}
  m_LocalPosition: {x: 18, y: 1, z: 1.5}
  m_LocalScale: {x: 1, y: 1, z: 1}
  m_Children: []
  m_Father: {fileID: 0}
  m_RootOrder: 0
  m_LocalEulerAnglesHint: {x: 0, y: 0, z: 0}
--- !u!65 &8389817490833005128
BoxCollider:
  m_ObjectHideFlags: 0
  m_CorrespondingSourceObject: {fileID: 0}
  m_PrefabInstance: {fileID: 0}
  m_PrefabAsset: {fileID: 0}
  m_GameObject: {fileID: 8389817490833005129}
  m_Material: {fileID: 0}
  m_IsTrigger: 1
  m_Enabled: 1
  serializedVersion: 2
  m_Size: {x: 1, y: 1, z: 3.5}
  m_Center: {x: 0.042390823, y: 0.1397599, z: -0.020636559}
--- !u!114 &8389817490833005130
MonoBehaviour:
  m_ObjectHideFlags: 0
  m_CorrespondingSourceObject: {fileID: 0}
  m_PrefabInstance: {fileID: 0}
  m_PrefabAsset: {fileID: 0}
  m_GameObject: {fileID: 8389817490833005129}
  m_Enabled: 1
  m_EditorHideFlags: 0
  m_Script: {fileID: 11500000, guid: 9803f62c71cebae448f6a1e228d93e55, type: 3}
  m_Name: 
  m_EditorClassIdentifier: 
  fadeDuration: 1
  displayImageDuration: 1
  player: {fileID: 0}
  exitBackgroundImageCanvasGroup: {fileID: 0}
  caughtBackgroundImageCanvasGroup: {fileID: 0}
  exitAudio: {fileID: 0}
  caughtAudio: {fileID: 0}
